<svg width="10" height="6" viewBox="0 0 10 6" xmlns="http://www.w3.org/2000/svg">
    <path d="M1.17832 6L4.75582 2.4225L8.33332 6L9.51166 4.82167L4.75582 0.0658345L-9.63976e-06 4.82167L1.17832 6Z" />
</svg>
